2016-01-01,2558
2016-01-02,2422
2016-01-03,2522
2016-01-04,2743
2016-01-05,2633
2016-01-06,2578
2016-01-07,2584
2016-01-08,2765
2016-01-09,2579
2016-01-10,2585
2016-01-11,2751
2016-01-12,2627
2016-01-13,2698
2016-01-14,2581
2016-01-15,2657
2016-01-16,2627
2016-01-17,2498
2016-01-18,2624
2016-01-19,2641
2016-01-20,2640
2016-01-21,2685
2016-01-22,2668
2016-01-23,2688
2016-01-24,2681
2016-01-25,2777
2016-01-26,2679
2016-01-27,2691
2016-01-28,2639
2016-01-29,2755
2016-01-30,2650
2016-01-31,2516
2016-02-01,2683
2016-02-02,2745
2016-02-03,2518
2016-02-04,2579
2016-02-05,2649
2016-02-06,2700
2016-02-07,2619
2016-02-08,2663
2016-02-09,2640
2016-02-10,2751
2016-02-11,2594
2016-02-12,2620
2016-02-13,2701
2016-02-14,2572
2016-02-15,2643
2016-02-16,2506
2016-02-17,2671
2016-02-18,2673
2016-02-19,2730
2016-02-20,2661
2016-02-21,2599
2016-02-22,2706
2016-02-23,2684
2016-02-24,2618
2016-02-25,2658
2016-02-26,2703
2016-02-27,2585
2016-02-28,2521
2016-02-29,2627
2016-03-01,2693
2016-03-02,2794
2016-03-03,2730
2016-03-04,2803
2016-03-05,2654
2016-03-06,2625
2016-03-07,2690
2016-03-08,2754
2016-03-09,2769
2016-03-10,2682
2016-03-11,2714
2016-03-12,2613
2016-03-13,2666
2016-03-14,2727
2016-03-15,2715
2016-03-16,2686
2016-03-17,2813
2016-03-18,2711
2016-03-19,2691
2016-03-20,2628
2016-03-21,2788
2016-03-22,2748
2016-03-23,2811
2016-03-24,2660
2016-03-25,2676
2016-03-26,2656
2016-03-27,2487
2016-03-28,2551
2016-03-29,2757
2016-03-30,2668
2016-03-31,2708
2016-04-01,2675
2016-04-02,2637
2016-04-03,2621
2016-04-04,2695
2016-04-05,2707
2016-04-06,2650
2016-04-07,2584
2016-04-08,2653
2016-04-09,2532
2016-04-10,2423
2016-04-11,2546
2016-04-12,2618
2016-04-13,2621
2016-04-14,2518
2016-04-15,2544
2016-04-16,2471
2016-04-17,2394
2016-04-18,2370
2016-04-19,2351
2016-04-20,2425
2016-04-21,2422
2016-04-22,2466
2016-04-23,2428
2016-04-24,2313
2016-04-25,2423
2016-04-26,2437
2016-04-27,2502
2016-04-28,2413
2016-04-29,2379
2016-04-30,2497
2016-05-01,2402
2016-05-02,2491
2016-05-03,2396
2016-05-04,2413
2016-05-05,2226
2016-05-06,2505
2016-05-07,2503
2016-05-08,2367
2016-05-09,2552
2016-05-10,2648
2016-05-11,2600
2016-05-12,2573
2016-05-13,2562
2016-05-14,2399
2016-05-15,2295
2016-05-16,2278
2016-05-17,2340
2016-05-18,2332
2016-05-19,2442
2016-05-20,2410
2016-05-21,2401
2016-05-22,2398
2016-05-23,2407
2016-05-24,2344
2016-05-25,2402
2016-05-26,2194
2016-05-27,2346
2016-05-28,2309
2016-05-29,2284
2016-05-30,2361
2016-05-31,2345
2016-06-01,2369
2016-06-02,2416
2016-06-03,2349
2016-06-04,2338
2016-06-05,2168
2016-06-06,2378
2016-06-07,2334
2016-06-08,2355
2016-06-09,2177
2016-06-10,2265
2016-06-11,2121
2016-06-12,2169
2016-06-13,2293
2016-06-14,2288
2016-06-15,2259
2016-06-16,2370
2016-06-17,2208
2016-06-18,2186
2016-06-19,2113
2016-06-20,2314
2016-06-21,2346
2016-06-22,2506
2016-06-23,2475
2016-06-24,2712
2016-06-25,2492
2016-06-26,2065
2016-06-27,2191
2016-06-28,2302
2016-06-29,2348
2016-06-30,2279
2016-07-01,2431
2016-07-02,2145
2016-07-03,2003
2016-07-04,2298
2016-07-05,2368
2016-07-06,2231
2016-07-07,2261
2016-07-08,2455
2016-07-09,2284
2016-07-10,2332
2016-07-11,2559
2016-07-12,2435
2016-07-13,2313
2016-07-14,2216
2016-07-15,2139
2016-07-16,2225
2016-07-17,2285
2016-07-18,2294
2016-07-19,2316
2016-07-20,2441
2016-07-21,2593
2016-07-22,2659
2016-07-23,2366
2016-07-24,2316
2016-07-25,2449
2016-07-26,2345
2016-07-27,2267
2016-07-28,2313
2016-07-29,2311
2016-07-30,2250
2016-07-31,2222
2016-08-01,2197
2016-08-02,2216
2016-08-03,2305
2016-08-04,2269
2016-08-05,2202
2016-08-06,2149
2016-08-07,2101
2016-08-08,2307
2016-08-09,2134
2016-08-10,2191
2016-08-11,2107
2016-08-12,2229
2016-08-13,2327
2016-08-14,2192
2016-08-15,2394
2016-08-16,2238
2016-08-17,2375
2016-08-18,2366
2016-08-19,2324
2016-08-20,2319
2016-08-21,2242
2016-08-22,2321
2016-08-23,2330
2016-08-24,2479
2016-08-25,2479
2016-08-26,2511
2016-08-27,2487
2016-08-28,2540
2016-08-29,2441
2016-08-30,2254
2016-08-31,2269
2016-09-01,2419
2016-09-02,2294
2016-09-03,2217
2016-09-04,2207
2016-09-05,2214
2016-09-06,2299
2016-09-07,2283
2016-09-08,2398
2016-09-09,2432
2016-09-10,2229
2016-09-11,2261
2016-09-12,2337
2016-09-13,2440
2016-09-14,2435
2016-09-15,2421
2016-09-16,2367
2016-09-17,2262
2016-09-18,2110
2016-09-19,2221
2016-09-20,2234
2016-09-21,2251
2016-09-22,2185
2016-09-23,2230
2016-09-24,2301
2016-09-25,2184
2016-09-26,2328
2016-09-27,2363
2016-09-28,2266
2016-09-29,2378
2016-09-30,2471
2016-10-01,2259
2016-10-02,2271
2016-10-03,2219
2016-10-04,2307
2016-10-05,2294
2016-10-06,2429
2016-10-07,2368
2016-10-08,2443
2016-10-09,2292
2016-10-10,2403
2016-10-11,2415
2016-10-12,2447
2016-10-13,2479
2016-10-14,2593
2016-10-15,2619
2016-10-16,2471
2016-10-17,2531
2016-10-18,2604
2016-10-19,2561
2016-10-20,2501
2016-10-21,2566
2016-10-22,2406
2016-10-23,2430
2016-10-24,2588
2016-10-25,2475
2016-10-26,2556
2016-10-27,2446
2016-10-28,2596
2016-10-29,2476
2016-10-30,2449
2016-10-31,2507
2016-11-01,2523
2016-11-02,2553
2016-11-03,2462
2016-11-04,2545
2016-11-05,2581
2016-11-06,2409
2016-11-07,2525
2016-11-08,2522
2016-11-09,2520
2016-11-10,2593
2016-11-11,2553
2016-11-12,2543
2016-11-13,2526
2016-11-14,2588
2016-11-15,2598
2016-11-16,2770
2016-11-17,2613
2016-11-18,2677
2016-11-19,2711
2016-11-20,2634
2016-11-21,2541
2016-11-22,2577
2016-11-23,2577
2016-11-24,2581
2016-11-25,2618
2016-11-26,2568
2016-11-27,2449
2016-11-28,2521
2016-11-29,2551
2016-11-30,2621
2016-12-01,2658
2016-12-02,2754
2016-12-03,2532
2016-12-04,2509
2016-12-05,2658
2016-12-06,2662
2016-12-07,2678
2016-12-08,2706
2016-12-09,2727
2016-12-10,2699
2016-12-11,2663
2016-12-12,2704
2016-12-13,2718
2016-12-14,2700
2016-12-15,2784
2016-12-16,2662
2016-12-17,2629
2016-12-18,2688
2016-12-19,2748
2016-12-20,2788
2016-12-21,2716
2016-12-22,2765
2016-12-23,2729
2016-12-24,2918
2016-12-25,2712
2016-12-26,2781
2016-12-27,2839
2016-12-28,2831
2016-12-29,2751
2016-12-30,2834
2016-12-31,2796
2017-01-01,2912
2017-01-02,3085
2017-01-03,2923
2017-01-04,2973
2017-01-05,3055
2017-01-06,2979
2017-01-07,2949
2017-01-08,2954
2017-01-09,3088
2017-01-10,3256
2017-01-11,3213
2017-01-12,3145
2017-01-13,3240
2017-01-14,3079
2017-01-15,3049
2017-01-16,3036
2017-01-17,3011
2017-01-18,2956
2017-01-19,3077
2017-01-20,3073
2017-01-21,3120
2017-01-22,2963
2017-01-23,3151
2017-01-24,3226
2017-01-25,3155
2017-01-26,3196
2017-01-27,3167
2017-01-28,3114
2017-01-29,3074
2017-01-30,3404
2017-01-31,3410
2017-02-01,3290
2017-02-02,3316
2017-02-03,3535
2017-02-04,3427
2017-02-05,3258
2017-02-06,3286
2017-02-07,3337
2017-02-08,3232
2017-02-09,3217
2017-02-10,3360
2017-02-11,3168
2017-02-12,3144
2017-02-13,3298
2017-02-14,3222
2017-02-15,3292
2017-02-16,3342
2017-02-17,3268
2017-02-18,3209
2017-02-19,3052
2017-02-20,3314
2017-02-21,3221
2017-02-22,3307
2017-02-23,3350
2017-02-24,3104
2017-02-25,3025
2017-02-26,2945
2017-02-27,3131
2017-02-28,2999
2017-03-01,3121
2017-03-02,2990
2017-03-03,2944
2017-03-04,2960
2017-03-05,2785
2017-03-06,2907
2017-03-07,2724
2017-03-08,2695
2017-03-09,2758
2017-03-10,2789
2017-03-11,2659
2017-03-12,2570
2017-03-13,2680
2017-03-14,2685
2017-03-15,2662
2017-03-16,2654
2017-03-17,2667
2017-03-18,2671
2017-03-19,2646
2017-03-20,2627
2017-03-21,2604
2017-03-22,2557
2017-03-23,2572
2017-03-24,2617
2017-03-25,2501
2017-03-26,2162
2017-03-27,2548
2017-03-28,2514
2017-03-29,2573
2017-03-30,2505
2017-03-31,2587
2017-04-01,2527
2017-04-02,2477
2017-04-03,2498
2017-04-04,2418
2017-04-05,2519
2017-04-06,2370
2017-04-07,2465
2017-04-08,2417
2017-04-09,2341
2017-04-10,2483
2017-04-11,2398
2017-04-12,2474
2017-04-13,2486
2017-04-14,2375
2017-04-15,2411
2017-04-16,2274
2017-04-17,2290
2017-04-18,2431
2017-04-19,2304
2017-04-20,2387
2017-04-21,2404
2017-04-22,2428
2017-04-23,2393
2017-04-24,2499
2017-04-25,2523
2017-04-26,2544
2017-04-27,2558
2017-04-28,2606
2017-04-29,2475
2017-04-30,2429
2017-05-01,2391
2017-05-02,2508
2017-05-03,2459
2017-05-04,2496
2017-05-05,2472
2017-05-06,2431
2017-05-07,2372
2017-05-08,2460
2017-05-09,2324
2017-05-10,2455
2017-05-11,2510
2017-05-12,2588
2017-05-13,2515
2017-05-14,2491
2017-05-15,2353
2017-05-16,2475
2017-05-17,2625
2017-05-18,2593
2017-05-19,2515
2017-05-20,2342
2017-05-21,2176
2017-05-22,2346
2017-05-23,2399
2017-05-24,2392
2017-05-25,2231
2017-05-26,2442
2017-05-27,2304
2017-05-28,2337
2017-05-29,2655
2017-05-30,2534
2017-05-31,2492
2017-06-01,2326
2017-06-02,2368
2017-06-03,2306
2017-06-04,2221
2017-06-05,2137
2017-06-06,2324
2017-06-07,2273
2017-06-08,2260
2017-06-09,2385
2017-06-10,2261
2017-06-11,2206
2017-06-12,2407
2017-06-13,2302
2017-06-14,2247
2017-06-15,2394
2017-06-16,2302
2017-06-17,2171
2017-06-18,2264
2017-06-19,2335
2017-06-20,2470
2017-06-21,2342
2017-06-22,2545
2017-06-23,2551
2017-06-24,2316
2017-06-25,2260
2017-06-26,2361
2017-06-27,2281
2017-06-28,2392
2017-06-29,2355
2017-06-30,2282
2017-07-01,2218
2017-07-02,2187
2017-07-03,2309
2017-07-04,2223
2017-07-05,2366
2017-07-06,2345
2017-07-07,2523
2017-07-08,2395
2017-07-09,2263
2017-07-10,2342
2017-07-11,2373
2017-07-12,2311
2017-07-13,2138
2017-07-14,2158
2017-07-15,2180
2017-07-16,2101
2017-07-17,2246
2017-07-18,2386
2017-07-19,2384
2017-07-20,2461
2017-07-21,2406
2017-07-22,2427
2017-07-23,2279
2017-07-24,2258
2017-07-25,2248
2017-07-26,2285
2017-07-27,2317
2017-07-28,2240
2017-07-29,2354
2017-07-30,2356
2017-07-31,2332
2017-08-01,2528
2017-08-02,2394
2017-08-03,2454
2017-08-04,2374
2017-08-05,2260
2017-08-06,2152
2017-08-07,2223
2017-08-08,2414
2017-08-09,2301
2017-08-10,2261
2017-08-11,2239
2017-08-12,2172
2017-08-13,2174
2017-08-14,2292
2017-08-15,2299
2017-08-16,2469
2017-08-17,2320
2017-08-18,2414
2017-08-19,2259
2017-08-20,2095
2017-08-21,2201
2017-08-22,2206
2017-08-23,2157
2017-08-24,2391
2017-08-25,2323
2017-08-26,2377
2017-08-27,2225
2017-08-28,2282
2017-08-29,2398
2017-08-30,2484
2017-08-31,2350
2017-09-01,2205
2017-09-02,2239
2017-09-03,2106
2017-09-04,2180
2017-09-05,2231
2017-09-06,2335
2017-09-07,2233
2017-09-08,2222
2017-09-09,2314
2017-09-10,2191
2017-09-11,2341
2017-09-12,2294
2017-09-13,2334
2017-09-14,2304
2017-09-15,2284
2017-09-16,2330
2017-09-17,2259
2017-09-18,2271
2017-09-19,2382
2017-09-20,2280
2017-09-21,2420
2017-09-22,2434
2017-09-23,2392
2017-09-24,2326
2017-09-25,2379
2017-09-26,2370
2017-09-27,2428
2017-09-28,2390
2017-09-29,2490
2017-09-30,2427
2017-10-01,2263
2017-10-02,2441
2017-10-03,2342
2017-10-04,2255
2017-10-05,2470
2017-10-06,2426
2017-10-07,2404
2017-10-08,2326
2017-10-09,2424
2017-10-10,2575
2017-10-11,2465
2017-10-12,2516
2017-10-13,2599
2017-10-14,2494
2017-10-15,2397
2017-10-16,2469
2017-10-17,2446
2017-10-18,2450
2017-10-19,2494
2017-10-20,2523
2017-10-21,2439
2017-10-22,2318
2017-10-23,2345
2017-10-24,2480
2017-10-25,2489
2017-10-26,2471
2017-10-27,2434
2017-10-28,2417
2017-10-29,2423
2017-10-30,2315
2017-10-31,2319
2017-11-01,2350
2017-11-02,2388
2017-11-03,2533
2017-11-04,2467
2017-11-05,2390
2017-11-06,2434
2017-11-07,2461
2017-11-08,2425
2017-11-09,2479
2017-11-10,2567
2017-11-11,2525
2017-11-12,2480
2017-11-13,2488
2017-11-14,2578
2017-11-15,2561
2017-11-16,2528
2017-11-17,2496
2017-11-18,2493
2017-11-19,2450
2017-11-20,2501
2017-11-21,2543
2017-11-22,2708
2017-11-23,2635
2017-11-24,2533
2017-11-25,2454
2017-11-26,2302
2017-11-27,2456
2017-11-28,2633
2017-11-29,2550
2017-11-30,2579
2017-12-01,2589
2017-12-02,2525
2017-12-03,2545
2017-12-04,2613
2017-12-05,2557
2017-12-06,2601
2017-12-07,2677
2017-12-08,2614
2017-12-09,2647
2017-12-10,2586
2017-12-11,2724
2017-12-12,2692
2017-12-13,2659
2017-12-14,2705
2017-12-15,2677
2017-12-16,2640
2017-12-17,2407
2017-12-18,2609
2017-12-19,2635
2017-12-20,2626
2017-12-21,2705
2017-12-22,2771
2017-12-23,2584
2017-12-24,2570
2017-12-25,2531
2017-12-26,2611
2017-12-27,2821
2017-12-28,2649
2017-12-29,2570
2017-12-30,2712
2017-12-31,2758
2018-01-01,2665
2018-01-02,2760
2018-01-03,2870
2018-01-04,2865
2018-01-05,2875
2018-01-06,2763
2018-01-07,2544
2018-01-08,2659
2018-01-09,2589
2018-01-10,2805
2018-01-11,2705
2018-01-12,2731
2018-01-13,2679
2018-01-14,2602
2018-01-15,2754
2018-01-16,2849
2018-01-17,2731
2018-01-18,2831
2018-01-19,2803
2018-01-20,2645
2018-01-21,2574
2018-01-22,2763
2018-01-23,2761
2018-01-24,2816
2018-01-25,2796
2018-01-26,2804
2018-01-27,2640
2018-01-28,2591
2018-01-29,2897
2018-01-30,2728
2018-01-31,2878
2018-02-01,2826
2018-02-02,2811
2018-02-03,2764
2018-02-04,2654
2018-02-05,2835
2018-02-06,2784
2018-02-07,2983
2018-02-08,2887
2018-02-09,2871
2018-02-10,2872
2018-02-11,2854
2018-02-12,3012
2018-02-13,3041
2018-02-14,2965
2018-02-15,3031
2018-02-16,3105
2018-02-17,3000
2018-02-18,3100
2018-02-19,3201
2018-02-20,3237
2018-02-21,3284
2018-02-22,3291
2018-02-23,3378
2018-02-24,3269
2018-02-25,3228
2018-02-26,3457
2018-02-27,3469
2018-02-28,3590
2018-03-01,3713
2018-03-02,3703
2018-03-03,3863
2018-03-04,3740
2018-03-05,3932
2018-03-06,3881
2018-03-07,3881
2018-03-08,3722
2018-03-09,3876
2018-03-10,3749
2018-03-11,3736
2018-03-12,3741
2018-03-13,3585
2018-03-14,3522
2018-03-15,3494
2018-03-16,3524
2018-03-17,3295
2018-03-18,3224
2018-03-19,3305
2018-03-20,3309
2018-03-21,3320
2018-03-22,3269
2018-03-23,3388
2018-03-24,3249
2018-03-25,2937
2018-03-26,3086
2018-03-27,3059
2018-03-28,3192
2018-03-29,2990
2018-03-30,2902
2018-03-31,2917
2018-04-01,2760
2018-04-02,2759
2018-04-03,3002
2018-04-04,2997
2018-04-05,2909
2018-04-06,2784
2018-04-07,2787
2018-04-08,2800
2018-04-09,2810
2018-04-10,2918
2018-04-11,2780
2018-04-12,2799
2018-04-13,2736
2018-04-14,2578
2018-04-15,2544
2018-04-16,2600
2018-04-17,2624
2018-04-18,2542
2018-04-19,2547
2018-04-20,2696
2018-04-21,2479
2018-04-22,2504
2018-04-23,2512
2018-04-24,2510
2018-04-25,2508
2018-04-26,2369
2018-04-27,2380
2018-04-28,2486
2018-04-29,2328
2018-04-30,2491
2018-05-01,2459
2018-05-02,2399
2018-05-03,2392
2018-05-04,2397
2018-05-05,2454
2018-05-06,2197
2018-05-07,2422
2018-05-08,2574
2018-05-09,2646
2018-05-10,2466
2018-05-11,2387
2018-05-12,2406
2018-05-13,2325
2018-05-14,2483
2018-05-15,2483
2018-05-16,2345
2018-05-17,2362
2018-05-18,2272
2018-05-19,2363
2018-05-20,2180
2018-05-21,2184
2018-05-22,2370
2018-05-23,2462
2018-05-24,2346
2018-05-25,2478
2018-05-26,2361
2018-05-27,2312
2018-05-28,2577
2018-05-29,2600
2018-05-30,2547
2018-05-31,2399
2018-06-01,2452
2018-06-02,2296
2018-06-03,2168
2018-06-04,2356
2018-06-05,2431
2018-06-06,2358
2018-06-07,2401
2018-06-08,2481
2018-06-09,2373
2018-06-10,2314
2018-06-11,2317
2018-06-12,2196
2018-06-13,2178
2018-06-14,2212
2018-06-15,2265
2018-06-16,2307
2018-06-17,2107
2018-06-18,2273
2018-06-19,2333
2018-06-20,2348
2018-06-21,2410
2018-06-22,2191
2018-06-23,2118
2018-06-24,2170
2018-06-25,2319
2018-06-26,2356
2018-06-27,2277
2018-06-28,2442
2018-06-29,2480
2018-06-30,2399
2018-07-01,2296
2018-07-02,2229
2018-07-03,2437
2018-07-04,2423
2018-07-05,2575
2018-07-06,2428
2018-07-07,2259
2018-07-08,2271
2018-07-09,2381
2018-07-10,2317
2018-07-11,2270
2018-07-12,2404
2018-07-13,2302
2018-07-14,2192
2018-07-15,2204
2018-07-16,2452
2018-07-17,2487
2018-07-18,2348
2018-07-19,2342
2018-07-20,2453
2018-07-21,2352
2018-07-22,2268
2018-07-23,2492
2018-07-24,2422
2018-07-25,2525
2018-07-26,2674
2018-07-27,2840
2018-07-28,2885
2018-07-29,2502
2018-07-30,2731
2018-07-31,2844
2018-08-01,3005
2018-08-02,2876
2018-08-03,3053
2018-08-04,3091
2018-08-05,2771
2018-08-06,2596
2018-08-07,2878
2018-08-08,2964
2018-08-09,2896
2018-08-10,2589
2018-08-11,2321
2018-08-12,2234
2018-08-13,2557
2018-08-14,2452
2018-08-15,2307
2018-08-16,2433
2018-08-17,2433
2018-08-18,2373
2018-08-19,2335
2018-08-20,2458
2018-08-21,2397
2018-08-22,2468
2018-08-23,2575
2018-08-24,2410
2018-08-25,2212
2018-08-26,2092
2018-08-27,2317
2018-08-28,2356
2018-08-29,2311
2018-08-30,2380
2018-08-31,2230
2018-09-01,2197
2018-09-02,2209
2018-09-03,2471
2018-09-04,2427
2018-09-05,2386
2018-09-06,2379
2018-09-07,2428
2018-09-08,2153
2018-09-09,2146
2018-09-10,2281
2018-09-11,2363
2018-09-12,2449
2018-09-13,2380
2018-09-14,2420
2018-09-15,2186
2018-09-16,2213
2018-09-17,2351
2018-09-18,2476
2018-09-19,2439
2018-09-20,2553
2018-09-21,2390
2018-09-22,2153
2018-09-23,2289
2018-09-24,2308
2018-09-25,2158
2018-09-26,2315
2018-09-27,2338
2018-09-28,2369
2018-09-29,2242
2018-09-30,2239
2018-10-01,2380
2018-10-02,2394
2018-10-03,2274
2018-10-04,2390
2018-10-05,2435
2018-10-06,2466
2018-10-07,2283
2018-10-08,2338
2018-10-09,2394
2018-10-10,2475
2018-10-11,2525
2018-10-12,2455
2018-10-13,2433
2018-10-14,2373
2018-10-15,2474
2018-10-16,2411
2018-10-17,2443
2018-10-18,2362
2018-10-19,2383
2018-10-20,2254
2018-10-21,2225
2018-10-22,2264
2018-10-23,2410
2018-10-24,2415
2018-10-25,2397
2018-10-26,2481
2018-10-27,2218
2018-10-28,2423
2018-10-29,2397
2018-10-30,2459
2018-10-31,2408
2018-11-01,2398
2018-11-02,2452
2018-11-03,2430
2018-11-04,2351
2018-11-05,2569
2018-11-06,2544
2018-11-07,2459
2018-11-08,2593
2018-11-09,2532
2018-11-10,2423
2018-11-11,2484
2018-11-12,2457
2018-11-13,2476
2018-11-14,2351
2018-11-15,2355
2018-11-16,2487
2018-11-17,2335
2018-11-18,2381
2018-11-19,2509
2018-11-20,2575
2018-11-21,2535
2018-11-22,2711
2018-11-23,2572
2018-11-24,2527
2018-11-25,2356
2018-11-26,2534
2018-11-27,2517
2018-11-28,2518
2018-11-29,2690
2018-11-30,2641
2018-12-01,2583
2018-12-02,2608
2018-12-03,2718
2018-12-04,2594
2018-12-05,2558
2018-12-06,2605
2018-12-07,2761
2018-12-08,2511
2018-12-09,2595
2018-12-10,2522
2018-12-11,2622
2018-12-12,2611
2018-12-13,2587
2018-12-14,2599
2018-12-15,2508
2018-12-16,2494
2018-12-17,2678
2018-12-18,2610
2018-12-19,2744
2018-12-20,2777
2018-12-21,2836
2018-12-22,2791
2018-12-23,2554
2018-12-24,2623
2018-12-25,2448
2018-12-26,2537
2018-12-27,2616
2018-12-28,2704
2018-12-29,2573
2018-12-30,2453
2018-12-31,2579
2019-01-01,2639
2019-01-02,2642
2019-01-03,2610
2019-01-04,2782
2019-01-05,2818
2019-01-06,2616
2019-01-07,2749
2019-01-08,2823
2019-01-09,2758
2019-01-10,2750
2019-01-11,2796
2019-01-12,2681
2019-01-13,2613
2019-01-14,2787
2019-01-15,2800
2019-01-16,2790
2019-01-17,2786
2019-01-18,2776
2019-01-19,2610
2019-01-20,2614
2019-01-21,2693
2019-01-22,2742
2019-01-23,2865
2019-01-24,2835
2019-01-25,2833
2019-01-26,2797
2019-01-27,2740
2019-01-28,2904
2019-01-29,2748
2019-01-30,2729
2019-01-31,2779
2019-02-01,3012
2019-02-02,2875
2019-02-03,2765
2019-02-04,2812
2019-02-05,2890
2019-02-06,2898
2019-02-07,2882
2019-02-08,2847
2019-02-09,2847
2019-02-10,2805
2019-02-11,2853
2019-02-12,2860
2019-02-13,2890
2019-02-14,2910
2019-02-15,2977
2019-02-16,2844
2019-02-17,2816
2019-02-18,2990
2019-02-19,2876
2019-02-20,3000
2019-02-21,2963
2019-02-22,2986
2019-02-23,2792
2019-02-24,2742
2019-02-25,2970
2019-02-26,2977
2019-02-27,2939
2019-02-28,2991
2019-03-01,3100
2019-03-02,2955
2019-03-03,2858
2019-03-04,2909
2019-03-05,2978
2019-03-06,3006
2019-03-07,3046
2019-03-08,2981
2019-03-09,2810
2019-03-10,2723
2019-03-11,2743
2019-03-12,2857
2019-03-13,2878
2019-03-14,2864
2019-03-15,2882
2019-03-16,2859
2019-03-17,2712
2019-03-18,2701
2019-03-19,2651
2019-03-20,2749
2019-03-21,2768
2019-03-22,2806
2019-03-23,2730
2019-03-24,2611
2019-03-25,2614
2019-03-26,2654
2019-03-27,2683
2019-03-28,2670
2019-03-29,2809
2019-03-30,2670
2019-03-31,2462
2019-04-01,2653
2019-04-02,2695
2019-04-03,2754
2019-04-04,2790
2019-04-05,2682
2019-04-06,2645
2019-04-07,2452
2019-04-08,2670
2019-04-09,2542
2019-04-10,2628
2019-04-11,2543
2019-04-12,2513
2019-04-13,2537
2019-04-14,2419
2019-04-15,2671
2019-04-16,2580
2019-04-17,2629
2019-04-18,2623
2019-04-19,2594
2019-04-20,2504
2019-04-21,2488
2019-04-22,2435
2019-04-23,2714
2019-04-24,2704
2019-04-25,2675
2019-04-26,2594
2019-04-27,2439
2019-04-28,2333
2019-04-29,2393
2019-04-30,2511
2019-05-01,2456
2019-05-02,2445
2019-05-03,2536
2019-05-04,2464
2019-05-05,2285
2019-05-06,2428
2019-05-07,2369
2019-05-08,2519
2019-05-09,2563
2019-05-10,2561
2019-05-11,2431
2019-05-12,2247
2019-05-13,2431
2019-05-14,2459
2019-05-15,2374
2019-05-16,2508
2019-05-17,2575
2019-05-18,2559
2019-05-19,2409
2019-05-20,2533
2019-05-21,2561
2019-05-22,2425
2019-05-23,2414
2019-05-24,2538
2019-05-25,2335
2019-05-26,2274
2019-05-27,2471
2019-05-28,2356
2019-05-29,2410
2019-05-30,2290
2019-05-31,2443
2019-06-01,2460
2019-06-02,2491
2019-06-03,2574
2019-06-04,2685
2019-06-05,2754
2019-06-06,2512
2019-06-07,2331
2019-06-08,2375
2019-06-09,2260
2019-06-10,2259
2019-06-11,2394
2019-06-12,2403
2019-06-13,2317
2019-06-14,2454
2019-06-15,2405
2019-06-16,2252
2019-06-17,2288
2019-06-18,2510
2019-06-19,2656
2019-06-20,2417
2019-06-21,2332
2019-06-22,2222
2019-06-23,2214
2019-06-24,2476
2019-06-25,2648
2019-06-26,2871
2019-06-27,2680
2019-06-28,2383
2019-06-29,2359
2019-06-30,2501
2019-07-01,2616
2019-07-02,2325
2019-07-03,2305
2019-07-04,2347
2019-07-05,2438
2019-07-06,2338
2019-07-07,2183
2019-07-08,2183
2019-07-09,2284
2019-07-10,2325
2019-07-11,2423
2019-07-12,2471
2019-07-13,2355
2019-07-14,2278
2019-07-15,2306
2019-07-16,2352
2019-07-17,2340
2019-07-18,2395
2019-07-19,2573
2019-07-20,2541
2019-07-21,2349
2019-07-22,2444
2019-07-23,2447
2019-07-24,2739
2019-07-25,3006
2019-07-26,3293
2019-07-27,3056
2019-07-28,2645
2019-07-29,2579
2019-07-30,2603
2019-07-31,2387
2019-08-01,2378
2019-08-02,2483
2019-08-03,2404
2019-08-04,2200
2019-08-05,2354
2019-08-06,2453
2019-08-07,2512
2019-08-08,2258
2019-08-09,2459
2019-08-10,2374
2019-08-11,2130
2019-08-12,2278
2019-08-13,2167
2019-08-14,2208
2019-08-15,2241
2019-08-16,2395
2019-08-17,2288
2019-08-18,2357
2019-08-19,2300
2019-08-20,2291
2019-08-21,2168
2019-08-22,2250
2019-08-23,2324
2019-08-24,2390
2019-08-25,2540
2019-08-26,2589
2019-08-27,2596
2019-08-28,2646
2019-08-29,2557
2019-08-30,2456
2019-08-31,2398
2019-09-01,2395
2019-09-02,2253
2019-09-03,2244
2019-09-04,2401
2019-09-05,2356
2019-09-06,2244
2019-09-07,2227
2019-09-08,2263
2019-09-09,2384
2019-09-10,2266
2019-09-11,2299
2019-09-12,2345
2019-09-13,2405
2019-09-14,2349
2019-09-15,2255
2019-09-16,2363
2019-09-17,2392
2019-09-18,2359
2019-09-19,2336
2019-09-20,2336
2019-09-21,2384
2019-09-22,2330
2019-09-23,2558
2019-09-24,2497
2019-09-25,2610
2019-09-26,2497
2019-09-27,2527
2019-09-28,2313
2019-09-29,2400
2019-09-30,2434
2019-10-01,2517
2019-10-02,2468
2019-10-03,2341
2019-10-04,2515
2019-10-05,2382
2019-10-06,2242
2019-10-07,2397
2019-10-08,2546
2019-10-09,2598
2019-10-10,2516
2019-10-11,2477
2019-10-12,2559
2019-10-13,2573
2019-10-14,2663
2019-10-15,2655
2019-10-16,2577
2019-10-17,2370
2019-10-18,2556
2019-10-19,2547
2019-10-20,2345
2019-10-21,2527
2019-10-22,2461
2019-10-23,2454
2019-10-24,2547
2019-10-25,2562
2019-10-26,2404
2019-10-27,2372
2019-10-28,2427
2019-10-29,2384
2019-10-30,2470
2019-10-31,2554
2019-11-01,2508
2019-11-02,2607
2019-11-03,2538
2019-11-04,2668
2019-11-05,2597
2019-11-06,2598
2019-11-07,2547
2019-11-08,2561
2019-11-09,2507
2019-11-10,2381
2019-11-11,2674
2019-11-12,2616
2019-11-13,2616
2019-11-14,2585
2019-11-15,2629
2019-11-16,2556
2019-11-17,2566
2019-11-18,2620
2019-11-19,2636
2019-11-20,2654
2019-11-21,2688
2019-11-22,2694
2019-11-23,2663
2019-11-24,2580
2019-11-25,2707
2019-11-26,2711
2019-11-27,2727
2019-11-28,2676
2019-11-29,2739
2019-11-30,2529
2019-12-01,2492
2019-12-02,2734
2019-12-03,2692
2019-12-04,2694
2019-12-05,2708
2019-12-06,2831
2019-12-07,2699
2019-12-08,2785
2019-12-09,2768
2019-12-10,2617
2019-12-11,2704
2019-12-12,2812
2019-12-13,2790
2019-12-14,2772
2019-12-15,2638
2019-12-16,2568
2019-12-17,2848
2019-12-18,2722
2019-12-19,2776
2019-12-20,2801
2019-12-21,2723
2019-12-22,2624
2019-12-23,2780
2019-12-24,2605
2019-12-25,2585
2019-12-26,2556
2019-12-27,2653
2019-12-28,2502
2019-12-29,2523
2019-12-30,2620
2019-12-31,2707
2020-01-01,2685
2020-01-02,2809
2020-01-03,2761
2020-01-04,2765
2020-01-05,2536
2020-01-06,2685
2020-01-07,2802
2020-01-08,2832
2020-01-09,2911
2020-01-10,2886
2020-01-11,2679
2020-01-12,2613
2020-01-13,2753
2020-01-14,2826
2020-01-15,2673
2020-01-16,2832
2020-01-17,2654
2020-01-18,2656
2020-01-19,2559
2020-01-20,2603
2020-01-21,2688
2020-01-22,2684
2020-01-23,2723
2020-01-24,2836
2020-01-25,2654
2020-01-26,2639
2020-01-27,2810
2020-01-28,2898
2020-01-29,2844
2020-01-30,2769
2020-01-31,2915
2020-02-01,2802
2020-02-02,2736
2020-02-03,2739
2020-02-04,2895
2020-02-05,2695
2020-02-06,2597
2020-02-07,2753
2020-02-08,2721
2020-02-09,2638
2020-02-10,2857
2020-02-11,2836
2020-02-12,2790
2020-02-13,2802
2020-02-14,2793
2020-02-15,2809
2020-02-16,2761
2020-02-17,2817
2020-02-18,2662
2020-02-19,2738
2020-02-20,2728
2020-02-21,2676
2020-02-22,2677
2020-02-23,2655
2020-02-24,2775
2020-02-25,2805
2020-02-26,2792
2020-02-27,2741
2020-02-28,2911
2020-02-29,2829
2020-03-01,2652
2020-03-02,2854
2020-03-03,2898
2020-03-04,2797
2020-03-05,2786
2020-03-06,2910
2020-03-07,2707
2020-03-08,2715
2020-03-09,2880
2020-03-10,2878
2020-03-11,2885
2020-03-12,2846
2020-03-13,2822
2020-03-14,2795
2020-03-15,2743
2020-03-16,2918
2020-03-17,2860
2020-03-18,2937
2020-03-19,2808
2020-03-20,2866
2020-03-21,2756
2020-03-22,2577
2020-03-23,2678
2020-03-24,2731
2020-03-25,2921
2020-03-26,2832
2020-03-27,2954
2020-03-28,2934
2020-03-29,2628
2020-03-30,2876
2020-03-31,2952
2020-04-01,2975
2020-04-02,3070
2020-04-03,2981
2020-04-04,2946
2020-04-05,2862
2020-04-06,3041
2020-04-07,3048
2020-04-08,3163
2020-04-09,2967
2020-04-10,2747
2020-04-11,2790
2020-04-12,2746
2020-04-13,2678
2020-04-14,2727
2020-04-15,2735
2020-04-16,2820
2020-04-17,2917
2020-04-18,2718
2020-04-19,2666
2020-04-20,2650
2020-04-21,2735
2020-04-22,2699
2020-04-23,2745
2020-04-24,2734
2020-04-25,2542
2020-04-26,2452
2020-04-27,2624
2020-04-28,2577
2020-04-29,2767
2020-04-30,2708
2020-05-01,2496
2020-05-02,2434
2020-05-03,2314
2020-05-04,2511
2020-05-05,2509
2020-05-06,2556
2020-05-07,2534
2020-05-08,2568
2020-05-09,2556
2020-05-10,2417
2020-05-11,2461
2020-05-12,2453
2020-05-13,2515
2020-05-14,2420
2020-05-15,2465
2020-05-16,2333
2020-05-17,2354
2020-05-18,2493
2020-05-19,2527
2020-05-20,2602
2020-05-21,2410
2020-05-22,2473
2020-05-23,2381
2020-05-24,2277
2020-05-25,2428
2020-05-26,2421
2020-05-27,2427
2020-05-28,2478
2020-05-29,2411
2020-05-30,2383
2020-05-31,2228
2020-06-01,2316
2020-06-02,2537
2020-06-03,2591
2020-06-04,2694
2020-06-05,2492
2020-06-06,2372
2020-06-07,2260
2020-06-08,2311
2020-06-09,2321
2020-06-10,2382
2020-06-11,2318
2020-06-12,2521
2020-06-13,2445
2020-06-14,2303
2020-06-15,2311
2020-06-16,2401
2020-06-17,2394
2020-06-18,2384
2020-06-19,2369
2020-06-20,2350
2020-06-21,2192
2020-06-22,2474
2020-06-23,2453
2020-06-24,2379
2020-06-25,2456
2020-06-26,2552
2020-06-27,2599
2020-06-28,2380
2020-06-29,2305
2020-06-30,2297
2020-07-01,2457
2020-07-02,2424
2020-07-03,2356
2020-07-04,2275
2020-07-05,2343
2020-07-06,2399
2020-07-07,2321
2020-07-08,2253
2020-07-09,2391
2020-07-10,2430
2020-07-11,2200
2020-07-12,2148
2020-07-13,2283
2020-07-14,2430
2020-07-15,2426
2020-07-16,2364
2020-07-17,2337
2020-07-18,2329
2020-07-19,2368
2020-07-20,2445
2020-07-21,2315
2020-07-22,2317
2020-07-23,2391
2020-07-24,2526
2020-07-25,2510
2020-07-26,2383
2020-07-27,2433
2020-07-28,2599
2020-07-29,2376
2020-07-30,2361
2020-07-31,2605
2020-08-01,2590
2020-08-02,2469
2020-08-03,2408
2020-08-04,2286
2020-08-05,2389
2020-08-06,2398
2020-08-07,2543
2020-08-08,2670
2020-08-09,2776
2020-08-10,2782
2020-08-11,3043
2020-08-12,3003
2020-08-13,2883
2020-08-14,2867
2020-08-15,2654
2020-08-16,2488
2020-08-17,2494
2020-08-18,2560
2020-08-19,2553
2020-08-20,2508
2020-08-21,2683
2020-08-22,2512
2020-08-23,2249
2020-08-24,2335
2020-08-25,2418
2020-08-26,2394
2020-08-27,2278
2020-08-28,2430
2020-08-29,2485
2020-08-30,2316
2020-08-31,2278
2020-09-01,2451
2020-09-02,2409
2020-09-03,2439
2020-09-04,2477
2020-09-05,2395
2020-09-06,2340
2020-09-07,2433
2020-09-08,2429
2020-09-09,2545
2020-09-10,2502
2020-09-11,2507
2020-09-12,2437
2020-09-13,2302
2020-09-14,2503
2020-09-15,2656
2020-09-16,2575
2020-09-17,2556
2020-09-18,2412
2020-09-19,2472
2020-09-20,2381
2020-09-21,2480
2020-09-22,2495
2020-09-23,2612
2020-09-24,2523
2020-09-25,2577
2020-09-26,2423
2020-09-27,2336
2020-09-28,2481
2020-09-29,2568
2020-09-30,2527
2020-10-01,2607
2020-10-02,2537
2020-10-03,2477
2020-10-04,2417
2020-10-05,2444
2020-10-06,2537
2020-10-07,2530
2020-10-08,2504
2020-10-09,2635
2020-10-10,2548
2020-10-11,2303
2020-10-12,2490
2020-10-13,2500
2020-10-14,2583
2020-10-15,2555
2020-10-16,2591
2020-10-17,2564
2020-10-18,2471
2020-10-19,2613
2020-10-20,2578
2020-10-21,2744
2020-10-22,2720
2020-10-23,2701
2020-10-24,2576
2020-10-25,2656
2020-10-26,2599
2020-10-27,2483
2020-10-28,2631
2020-10-29,2604
2020-10-30,2807
2020-10-31,2776
2020-11-01,2684
2020-11-02,2859
2020-11-03,2740
2020-11-04,2721
2020-11-05,2684
2020-11-06,2696
2020-11-07,2708
2020-11-08,2599
2020-11-09,2775
2020-11-10,2795
2020-11-11,2769
2020-11-12,2846
2020-11-13,2834
2020-11-14,2897
2020-11-15,2811
2020-11-16,2864
2020-11-17,2981
2020-11-18,2833
2020-11-19,2794
2020-11-20,2910
2020-11-21,2863
2020-11-22,2937
2020-11-23,3086
2020-11-24,3077
2020-11-25,3050
2020-11-26,3032
2020-11-27,3051
2020-11-28,3037
2020-11-29,2971
2020-11-30,3085
2020-12-01,3237
2020-12-02,3166
2020-12-03,3292
2020-12-04,3363
2020-12-05,3323
2020-12-06,3138
2020-12-07,3391
2020-12-08,3377
2020-12-09,3392
2020-12-10,3400
2020-12-11,3571
2020-12-12,3429
2020-12-13,3443
2020-12-14,3523
2020-12-15,3498
2020-12-16,3565
2020-12-17,3602
2020-12-18,3594
2020-12-19,3520
2020-12-20,3422
2020-12-21,3681
2020-12-22,3769
2020-12-23,3830
2020-12-24,3588
2020-12-25,3559
2020-12-26,3488
2020-12-27,3639
2020-12-28,3879
2020-12-29,3747
2020-12-30,3791
2020-12-31,3575
2021-01-01,3553
2021-01-02,3534
2021-01-03,3418
2021-01-04,3719
2021-01-05,3561
2021-01-06,3636
2021-01-07,3574
2021-01-08,3566
2021-01-09,3451
2021-01-10,3342
2021-01-11,3557
2021-01-12,3601
2021-01-13,3527
2021-01-14,3583
2021-01-15,3607
2021-01-16,3372
2021-01-17,3256
2021-01-18,3477
2021-01-19,3517
2021-01-20,3495
2021-01-21,3550
2021-01-22,3572
2021-01-23,3307
2021-01-24,3159
2021-01-25,3355
2021-01-26,3304
2021-01-27,3311
2021-01-28,3289
2021-01-29,3318
2021-01-30,3084
2021-01-31,2984
2021-02-01,3204
2021-02-02,3162
2021-02-03,3261
2021-02-04,3080
2021-02-05,3041
2021-02-06,3120
2021-02-07,2868
2021-02-08,3062
2021-02-09,3066
2021-02-10,2985
2021-02-11,2996
2021-02-12,3140
2021-02-13,2958
2021-02-14,2725
2021-02-15,2990
2021-02-16,3129
2021-02-17,2993
2021-02-18,2915
2021-02-19,2903
2021-02-20,2796
2021-02-21,2743
2021-02-22,2801
2021-02-23,2757
2021-02-24,2774
2021-02-25,2786
2021-02-26,2680
2021-02-27,2649
2021-02-28,2504
2021-03-01,2710
2021-03-02,2669
2021-03-03,2670
2021-03-04,2734
2021-03-05,2690
2021-03-06,2482
2021-03-07,2482
2021-03-08,2742
2021-03-09,2738
2021-03-10,2602
2021-03-11,2683
2021-03-12,2656
2021-03-13,2678
2021-03-14,2509
2021-03-15,2753
2021-03-16,2611
2021-03-17,2628
2021-03-18,2650
2021-03-19,2702
2021-03-20,2488
2021-03-21,2503
2021-03-22,2695
2021-03-23,2579
2021-03-24,2743
2021-03-25,2754
2021-03-26,2764
2021-03-27,2527
2021-03-28,2330
2021-03-29,2595
2021-03-30,2722
2021-03-31,2698
2021-04-01,2803
2021-04-02,2606
2021-04-03,2504
2021-04-04,2565
2021-04-05,2650
2021-04-06,2716
2021-04-07,2707
2021-04-08,2676
2021-04-09,2778
2021-04-10,2713
2021-04-11,2582
2021-04-12,2793
2021-04-13,2762
2021-04-14,2690
2021-04-15,2760
2021-04-16,2780
2021-04-17,2684
2021-04-18,2593
2021-04-19,2868
2021-04-20,2800
2021-04-21,2811
2021-04-22,2684
2021-04-23,2824
2021-04-24,2724
2021-04-25,2531
2021-04-26,2724
2021-04-27,2876
2021-04-28,2819
2021-04-29,2826
2021-04-30,2843
2021-05-01,2806
2021-05-02,2614
2021-05-03,2728
2021-05-04,2754
2021-05-05,2884
2021-05-06,2711
2021-05-07,2764
2021-05-08,2650
2021-05-09,2817
2021-05-10,2909
2021-05-11,2959
2021-05-12,2607
2021-05-13,2502
2021-05-14,2685
2021-05-15,2525
2021-05-16,2404
2021-05-17,2595
2021-05-18,2515
2021-05-19,2544
2021-05-20,2554
2021-05-21,2650
2021-05-22,2536
2021-05-23,2394
2021-05-24,2395
2021-05-25,2546
2021-05-26,2467
2021-05-27,2544
2021-05-28,2446
2021-05-29,2400
2021-05-30,2362
2021-05-31,2537
2021-06-01,2565
2021-06-02,2634
2021-06-03,2644
2021-06-04,2801
2021-06-05,2654
2021-06-06,2327
2021-06-07,2535
2021-06-08,2470
2021-06-09,2574
2021-06-10,2529
2021-06-11,2553
2021-06-12,2539
2021-06-13,2208
2021-06-14,2393
2021-06-15,2536
2021-06-16,2579
2021-06-17,2754
2021-06-18,2985
2021-06-19,2960
2021-06-20,2837
2021-06-21,2765
2021-06-22,2502
2021-06-23,2428
2021-06-24,2427
2021-06-25,2343
2021-06-26,2406
2021-06-27,2310
2021-06-28,2565
2021-06-29,2468
2021-06-30,2419
2021-07-01,2335
2021-07-02,2443
2021-07-03,2421
2021-07-04,2335
2021-07-05,2405
2021-07-06,2465
2021-07-07,2445
2021-07-08,2509
2021-07-09,2374
2021-07-10,2432
2021-07-11,2321
2021-07-12,2520
2021-07-13,2615
2021-07-14,2504
2021-07-15,2555
2021-07-16,2633
2021-07-17,2425
2021-07-18,2367
2021-07-19,2511
2021-07-20,2473
2021-07-21,2379
2021-07-22,2526
2021-07-23,2571
2021-07-24,2517
2021-07-25,2595
2021-07-26,2502
2021-07-27,2526
2021-07-28,2436
2021-07-29,2437
2021-07-30,2532
2021-07-31,2459
2021-08-01,2309
2021-08-02,2331
2021-08-03,2376
2021-08-04,2446
2021-08-05,2520
2021-08-06,2559
2021-08-07,2462
2021-08-08,2296
2021-08-09,2434
2021-08-10,2489
2021-08-11,2495
2021-08-12,2471
2021-08-13,2654
2021-08-14,2572
2021-08-15,2412
2021-08-16,2638
2021-08-17,2462
2021-08-18,2476
2021-08-19,2533
2021-08-20,2519
2021-08-21,2401
2021-08-22,2408
2021-08-23,2475
2021-08-24,2373
2021-08-25,2524
2021-08-26,2537
2021-08-27,2391
2021-08-28,2424
2021-08-29,2432
2021-08-30,2443
2021-08-31,2428
2021-09-01,2520
2021-09-02,2496
2021-09-03,2591
2021-09-04,2485
2021-09-05,2368
2021-09-06,2612
2021-09-07,2633
2021-09-08,2648
2021-09-09,2914
2021-09-10,2869
2021-09-11,2663
2021-09-12,2477
2021-09-13,2580
2021-09-14,2685
2021-09-15,2735
2021-09-16,2626
2021-09-17,2572
2021-09-18,2427
2021-09-19,2374
2021-09-20,2501
2021-09-21,2505
2021-09-22,2556
2021-09-23,2608
2021-09-24,2747
2021-09-25,2630
2021-09-26,2545
2021-09-27,2687
2021-09-28,2528
2021-09-29,2551
2021-09-30,2559
2021-10-01,2566
2021-10-02,2703
2021-10-03,2470
2021-10-04,2493
2021-10-05,2692
2021-10-06,2545
2021-10-07,2654
2021-10-08,2761
2021-10-09,2503
2021-10-10,2499
2021-10-11,2693
2021-10-12,2723
2021-10-13,2558
2021-10-14,2767
2021-10-15,2737
2021-10-16,2673
2021-10-17,2725
2021-10-18,2848
2021-10-19,2907
2021-10-20,2904
2021-10-21,2882
2021-10-22,2821
2021-10-23,2697
2021-10-24,2656
2021-10-25,2774
2021-10-26,2837
2021-10-27,2835
2021-10-28,2958
2021-10-29,2944
2021-10-30,2851
2021-10-31,2998
2021-11-01,2904
2021-11-02,2938
2021-11-03,2942
2021-11-04,2903
2021-11-05,2874
2021-11-06,2887
2021-11-07,2800
2021-11-08,3042
2021-11-09,3049
2021-11-10,2962
2021-11-11,2950
2021-11-12,2987
2021-11-13,3053
2021-11-14,2902
2021-11-15,3183
2021-11-16,3119
2021-11-17,3130
2021-11-18,3164
2021-11-19,3326
2021-11-20,3191
2021-11-21,3061
2021-11-22,3236
2021-11-23,3128
2021-11-24,3355
2021-11-25,3373
2021-11-26,3487
2021-11-27,3244
2021-11-28,3259
2021-11-29,3403
2021-11-30,3363
2021-12-01,3470
2021-12-02,3512
2021-12-03,3508
2021-12-04,3417
2021-12-05,3302
2021-12-06,3396
2021-12-07,3463
2021-12-08,3491
2021-12-09,3483
2021-12-10,3536
2021-12-11,3234
2021-12-12,3174
2021-12-13,3246
2021-12-14,3313
2021-12-15,3317
2021-12-16,3325
2021-12-17,3271
2021-12-18,3115
2021-12-19,3122
2021-12-20,3119
2021-12-21,3134
2021-12-22,3119
2021-12-23,3335
2021-12-24,3200
2021-12-25,3307
2021-12-26,3043
2021-12-27,3245
2021-12-28,3232
2021-12-29,3181
2021-12-30,3217
2021-12-31,3179
2022-01-01,2967
2022-01-02,2868
2022-01-03,2973
2022-01-04,3018
2022-01-05,2844
2022-01-06,2933
2022-01-07,2919
2022-01-08,2923
2022-01-09,2862
2022-01-10,2898
2022-01-11,2785
2022-01-12,2808
2022-01-13,2741
2022-01-14,2897
2022-01-15,2847
2022-01-16,2653
2022-01-17,2835
2022-01-18,2814
2022-01-19,2797
2022-01-20,2799
2022-01-21,2846
2022-01-22,2720
2022-01-23,2600
2022-01-24,2758
2022-01-25,2799
2022-01-26,2953
2022-01-27,2844
2022-01-28,2920
2022-01-29,2839
2022-01-30,2705
